…
## Motivation
While the Somerville, MA, City Council agendas and minutes are [posted publicly](http://somervillecityma.iqm2.com/Citizens/calendar.aspx), it can be difficult to search through them---the [built-in site search](http://somervillecityma.iqm2.com/Citizens/Search.aspx#SearchText=) is good for one-off queries, but not really for larger data investigation tasks. SomervilleCouncilParser.jl allows you to search those artifacts in a way that facilitates downstream munging. 

### Example: Searching agenda items
For example, say you want to know what meetings occurred in the month of September, 2021: 
```julia
julia> using Pkg
julia> Pkg.add(url="https://github.com/hannahilea/SomervilleCouncilParser.jl")
julia> using SomervilleCouncilParser

julia> meetings = request_meetings("9/1/2021", "9/30/2021")
13×3 DataFrame
 Row │ name                               date                 link                              
     │ String                             DateTime…            String                            
─────┼───────────────────────────────────────────────────────────────────────────────────────────
   1 │ Land Use Committee                 2021-09-01T18:00:00  http://somervillecityma.iqm2.com…
   2 │ City Council                       2021-09-09T19:00:00  http://somervillecityma.iqm2.com…
  ⋮  │                 ⋮                           ⋮                           ⋮
  13 │ Legislative Matters Committee      2021-09-30T18:00:00  http://somervillecityma.iqm2.com…
                                                                                  10 rows omitted
…
